…
```r
library(gapminder)
gapminder %>% 
	select(country, continent) %>% 
	group_by(country) %>% 
	slice(1) %>% 
	left_join(country_codes)
```

```
## Joining, by = "country"
```

```
## # A tibble: 142 x 4
## # Groups:   country [142]
##    country     continent iso_alpha iso_num
##    <chr>       <fct>     <chr>       <int>
##  1 Afghanistan Asia      AFG             4
##  2 Albania     Europe    ALB             8
##  3 Algeria     Africa    DZA            12
##  4 Angola      Africa    AGO            24
##  5 Argentina   Americas  ARG            32
##  6 Australia   Oceania   AUS            36
##  7 Austria     Europe    AUT            40
##  8 Bahrain     Asia      BHR            48
##  9 Bangladesh  Asia      BGD            50
## 10 Belgium     Europe    BEL            56
## # ... with 132 more rows
```
…
