…
Which country contributed these extreme observations?


```r
gapminder %>%
	filter(continent == "Asia") %>%
	select(year, country, lifeExp) %>%
	group_by(year) %>%
	filter(min_rank(lifeExp) == 1 | min_rank(desc(lifeExp)) == 1) %>%
	arrange(year)
```

```
## # A tibble: 24 x 3
## # Groups:   year [12]
##     year country     lifeExp
##    <int> <fct>         <dbl>
##  1  1952 Afghanistan    28.8
##  2  1952 Israel         65.4
##  3  1957 Afghanistan    30.3
##  4  1957 Israel         67.8
##  5  1962 Afghanistan    32.0
##  6  1962 Israel         69.4
##  7  1967 Afghanistan    34.0
##  8  1967 Japan          71.4
##  9  1972 Afghanistan    36.1
## 10  1972 Japan          73.4
## # ... with 14 more rows
```
…
